<?xml version="1.0" encoding="utf-8"?>
<!-- Generator: Adobe Illustrator 17.0.0, SVG Export Plug-In . SVG Version: 6.00 Build 0)  -->
<!DOCTYPE svg PUBLIC "-//W3C//DTD SVG 1.1//EN" "http://www.w3.org/Graphics/SVG/1.1/DTD/svg11.dtd">
<svg version="1.1" id="Layer_1" xmlns="http://www.w3.org/2000/svg" xmlns:xlink="http://www.w3.org/1999/xlink" x="0px" y="0px"
	 width="608px" height="512px" viewBox="0 0 608 512" enable-background="new 0 0 608 512" xml:space="preserve">
<path fill="#CC3300" d="M576.032,368.16l0.912-273.424l-496.8,0.304l-0.016-31.36H608v304.496L576.032,368.16z M559.92,416.272
	l-31.952-0.032l0.912-273.424l-496.8,0.32l-0.016-31.36h527.872v304.496H559.92z M512.848,448.32H0V159.84h512.848V448.32z
	 M480.784,190.896H32.048v225.376h448.72V190.896H480.784z M432.72,392.24c0,2.832,0.704,5.472,1.616,8h-177.92
	c44.256,0,80.144-43.04,80.144-96.16s-35.888-96.16-80.144-96.16H434.32c-0.912,2.528-1.616,5.168-1.616,8.016
	c0,13.28,10.752,24.032,24.032,24.032c2.848,0,5.488-0.704,8.016-1.616v131.44c-2.528-0.896-5.168-1.616-8.016-1.616
	C443.472,368.192,432.72,378.96,432.72,392.24z M400.656,270.704c-13.28,0-24.032,14.336-24.032,32.048s10.752,32.048,24.032,32.048
	s24.032-14.336,24.032-32.048S413.936,270.704,400.656,270.704z M289.968,246.304c0.24,0.464,0.432,1.088,0.592,1.856
	c0.176,0.768,0.288,1.744,0.336,2.912c0.08,1.168,0.112,2.624,0.112,4.368c0,1.936-0.048,3.584-0.144,4.912
	c-0.112,1.344-0.288,2.448-0.496,3.312c-0.256,0.88-0.576,1.52-0.992,1.904c-0.432,0.4-1.024,0.608-1.76,0.608
	s-1.888-0.464-3.504-1.392c-1.616-0.944-3.584-1.936-5.904-3.024s-5.04-2.096-8.112-2.992s-6.432-1.344-10.112-1.344
	c-2.88,0-5.376,0.336-7.504,1.04c-2.144,0.704-3.936,1.664-5.36,2.896c-1.44,1.232-2.512,2.72-3.2,4.432
	c-0.704,1.728-1.056,3.568-1.056,5.488c0,2.88,0.784,5.36,2.352,7.472c1.568,2.096,3.664,3.968,6.32,5.6
	c2.64,1.648,5.632,3.168,8.96,4.608s6.736,2.96,10.208,4.544c3.472,1.616,6.88,3.424,10.224,5.472
	c3.344,2.032,6.32,4.464,8.912,7.296c2.608,2.848,4.72,6.176,6.32,10.016s2.4,8.352,2.4,13.568c0,6.8-1.28,12.784-3.808,17.904
	c-2.528,5.136-5.968,9.44-10.32,12.88s-9.408,6.016-15.216,7.744c-0.736,0.224-1.536,0.32-2.288,0.496v17.504h-15.76v-15.44
	c-0.208,0-0.384,0.048-0.592,0.048c-4.464,0-8.624-0.368-12.464-1.088c-3.84-0.736-7.232-1.616-10.16-2.624
	c-2.944-1.024-5.392-2.112-7.36-3.232c-1.984-1.12-3.392-2.112-4.256-2.976s-1.488-2.112-1.856-3.744s-0.56-4-0.56-7.072
	c0-2.064,0.064-3.808,0.208-5.2c0.128-1.408,0.352-2.544,0.656-3.424c0.304-0.864,0.704-1.488,1.2-1.856
	c0.496-0.352,1.088-0.544,1.744-0.544c0.944,0,2.256,0.544,3.968,1.664c1.696,1.088,3.888,2.32,6.56,3.648s5.856,2.544,9.568,3.648
	c3.696,1.104,8,1.664,12.864,1.664c3.2,0,6.08-0.384,8.608-1.152c2.544-0.768,4.688-1.856,6.464-3.248
	c1.76-1.408,3.104-3.152,4.048-5.216c0.944-2.08,1.408-4.384,1.408-6.928c0-2.944-0.816-5.472-2.4-7.568
	c-1.6-2.112-3.68-3.968-6.256-5.616c-2.576-1.632-5.488-3.168-8.752-4.592c-3.28-1.44-6.64-2.96-10.112-4.56
	s-6.848-3.424-10.112-5.456c-3.264-2.032-6.192-4.464-8.752-7.312c-2.56-2.832-4.656-6.192-6.256-10.048
	c-1.6-3.872-2.4-8.512-2.4-13.92c0-6.208,1.152-11.664,3.456-16.352c2.304-4.704,5.408-8.608,9.312-11.712
	c3.904-3.088,8.512-5.424,13.808-6.96c2.72-0.784,5.536-1.36,8.432-1.744v-16.56h15.76v16.56c0.624,0.08,1.248,0.048,1.872,0.144
	c3.072,0.464,5.952,1.088,8.624,1.888c2.656,0.8,5.024,1.68,7.088,2.688c2.08,0.992,3.44,1.808,4.128,2.48
	C289.28,245.264,289.728,245.824,289.968,246.304z M176.288,304.08c0,53.104,35.872,96.16,80.128,96.16H78.512
	c0.896-2.528,1.616-5.168,1.616-8c0-13.28-10.768-24.048-24.032-24.048c-2.848,0-5.488,0.72-8.016,1.616v-131.44
	c2.528,0.912,5.168,1.616,8.016,1.616c13.28,0,24.032-10.752,24.032-24.032c0-2.848-0.72-5.488-1.616-8.016h177.904
	C212.16,207.92,176.288,250.976,176.288,304.08z M112.176,270.704c-13.28,0-24.032,14.336-24.032,32.048S98.912,334.8,112.176,334.8
	c13.28,0,24.032-14.336,24.032-32.048S125.456,270.704,112.176,270.704z"/>
</svg>
