<?xml version="1.0" encoding="utf-8"?>
<!-- Generator: Adobe Illustrator 17.0.0, SVG Export Plug-In . SVG Version: 6.00 Build 0)  -->
<!DOCTYPE svg PUBLIC "-//W3C//DTD SVG 1.1//EN" "http://www.w3.org/Graphics/SVG/1.1/DTD/svg11.dtd">
<svg version="1.1" id="Layer_1" xmlns="http://www.w3.org/2000/svg" xmlns:xlink="http://www.w3.org/1999/xlink" x="0px" y="0px"
	 width="512px" height="512px" viewBox="0 0 512 512" enable-background="new 0 0 512 512" xml:space="preserve">
<path fill="#61AE24" d="M219.633,132.945h72.148v-27.069h-72.148V132.945z M291.249,141.95h-71.616
	c0,0-117.832,116.145-117.832,230.015c0,120.656,123.462,130.248,123.462,130.248s36.826,6.107,59.732,0
	c0,0,125.186-14.672,125.186-129.661C410.199,257.526,291.249,141.95,291.249,141.95z M296.549,386.417
	c-2.898,5.869-6.804,10.784-11.792,14.708c-4.97,3.943-10.784,6.896-17.404,8.876c-0.844,0.257-1.761,0.348-2.623,0.569v20.027
	h-18.028v-17.679c-0.22,0.018-0.44,0.055-0.66,0.055c-5.117,0-9.867-0.403-14.268-1.229c-4.383-0.844-8.253-1.852-11.627-3.008
	c-3.374-1.174-6.18-2.402-8.418-3.686c-2.256-1.284-3.888-2.421-4.878-3.411c-1.009-0.99-1.706-2.421-2.127-4.291
	c-0.403-1.889-0.624-4.567-0.624-8.088c0-2.366,0.073-4.346,0.238-5.96s0.385-2.898,0.752-3.906
	c0.348-1.009,0.789-1.706,1.357-2.127c0.569-0.403,1.247-0.624,1.999-0.624c1.082,0,2.586,0.624,4.53,1.889s4.438,2.659,7.501,4.181
	c3.063,1.541,6.694,2.916,10.949,4.2c4.236,1.247,9.151,1.889,14.727,1.889c3.668,0,6.951-0.44,9.848-1.32
	c2.897-0.88,5.374-2.109,7.391-3.723c2.036-1.614,3.576-3.595,4.64-5.96c1.082-2.384,1.614-5.007,1.614-7.941
	c0-3.356-0.935-6.235-2.751-8.656c-1.834-2.402-4.236-4.53-7.171-6.419c-2.934-1.871-6.272-3.613-10.013-5.263
	s-7.611-3.393-11.572-5.208c-3.98-1.834-7.831-3.906-11.572-6.254c-3.741-2.329-7.097-5.098-10.032-8.345s-5.318-7.097-7.171-11.517
	c-1.834-4.42-2.733-9.738-2.733-15.919c0-7.116,1.32-13.351,3.943-18.725c2.641-5.374,6.199-9.848,10.655-13.388
	c4.475-3.54,9.738-6.199,15.809-7.959c3.118-0.899,6.346-1.559,9.647-1.981v-18.981h18.028v18.963
	c0.734,0.092,1.449,0.055,2.164,0.165c3.503,0.532,6.804,1.247,9.848,2.164c3.044,0.899,5.759,1.926,8.124,3.063
	s3.943,2.072,4.695,2.843c0.789,0.752,1.284,1.394,1.577,1.926c0.257,0.532,0.458,1.247,0.679,2.127
	c0.183,0.88,0.33,1.981,0.385,3.338c0.073,1.32,0.11,2.989,0.11,4.97c0,2.219-0.073,4.108-0.183,5.649
	c-0.11,1.522-0.293,2.788-0.569,3.778c-0.257,1.009-0.642,1.724-1.137,2.182s-1.137,0.679-1.999,0.679
	c-0.825,0-2.182-0.514-4.016-1.577c-1.834-1.082-4.09-2.219-6.731-3.466c-2.678-1.247-5.759-2.384-9.28-3.43
	c-3.54-1.027-7.391-1.522-11.572-1.522c-3.301,0-6.162,0.385-8.601,1.192c-2.458,0.789-4.493,1.907-6.144,3.301
	c-1.632,1.412-2.861,3.118-3.65,5.08c-0.807,1.962-1.192,4.071-1.192,6.272c0,3.301,0.899,6.144,2.678,8.546s4.2,4.548,7.226,6.419
	c3.008,1.889,6.437,3.631,10.27,5.263c3.815,1.651,7.703,3.393,11.682,5.208c3.98,1.852,7.849,3.925,11.682,6.254
	s7.244,5.117,10.215,8.363s5.374,7.061,7.207,11.444c1.834,4.402,2.751,9.555,2.751,15.534
	C300.914,373.707,299.447,380.53,296.549,386.417z M290.68,96.853L327.323,6.64c0,0-23.108,19.183-36.643,19.183
	S255.706,7.208,255.706,7.208s-23.108,18.615-36.643,18.615c-13.516,0-35.524-18.046-35.524-18.046l37.211,89.075L290.68,96.853z"/>
</svg>
